Type de bénéficiaire, service et région;Montant recommandé;% du montant recommandé basé sur le niveau antérieur
Grand total;184 755 746 $;100,00 %
Artiste total;31 389 033 $;16,99 %
Artiste - Bureau des arts autochtones total;614 950 $;1,96 %
Artiste - Bureau des arts autochtones - AB;47 000 $;7,64 %
Artiste - Bureau des arts autochtones - BC;71 500 $;11,63 %
Artiste - Bureau des arts autochtones - NB;4 500 $;0,73 %
Artiste - Bureau des arts autochtones - NT;25 000 $;4,07 %
Artiste - Bureau des arts autochtones - ON;245 700 $;39,95 %
Artiste - Bureau des arts autochtones - QC;211 750 $;34,43 %
Artiste - Bureau des arts autochtones - SK;5 000 $;0,81 %
Artiste - Bureau des arts autochtones - YT;4 500 $;0,73 %
Artiste - Programmes de subventions aux arts total;6 663 000 $;21,23 %
Artiste - Programmes de subventions aux arts - AB;145 000 $;2,18 %
Artiste - Programmes de subventions aux arts - BC;1 203 000 $;18,05 %
Artiste - Programmes de subventions aux arts - International;600 000 $;9,00 %
Artiste - Programmes de subventions aux arts - NL;50 000 $;0,75 %
Artiste - Programmes de subventions aux arts - NS;63 000 $;0,95 %
Artiste - Programmes de subventions aux arts - NU;140 000 $;2,10 %
Artiste - Programmes de subventions aux arts - ON;2 661 000 $;39,94 %
Artiste - Programmes de subventions aux arts - QC;1 801 000 $;27,03 %
Artiste - Développement des publics et des marchés total;449 061 $;1,43 %
Artiste - Développement des publics et des marchés - AB;8 780 $;1,96 %
Artiste - Développement des publics et des marchés - BC;48 315 $;10,76 %
Artiste - Développement des publics et des marchés - International;9 220 $;2,05 %
Artiste - Développement des publics et des marchés - MB;19 720 $;4,39 %
Artiste - Développement des publics et des marchés - NB;8 750 $;1,95 %
Artiste - Développement des publics et des marchés - NS;5 020 $;1,12 %
Artiste - Développement des publics et des marchés - NT;665 $;0,15 %
Artiste - Développement des publics et des marchés - NU;8 000 $;1,78 %
Artiste - Développement des publics et des marchés - ON;150 891 $;33,60 %
Artiste - Développement des publics et des marchés - PE;24 635 $;5,49 %
Artiste - Développement des publics et des marchés - QC;145 525 $;32,41 %
Artiste - Développement des publics et des marchés - SK;14 840 $;3,30 %
Artiste - Développement des publics et des marchés - YT;4 700 $;1,05 %
Artiste - Danse total;1 340 371 $;4,27 %
Artiste - Danse - AB;133 100 $;9,93 %
Artiste - Danse - BC;246 201 $;18,37 %
Artiste - Danse - International;26 677 $;1,99 %
Artiste - Danse - MB;33 300 $;2,48 %
Artiste - Danse - NL;35 579 $;2,65 %
Artiste - Danse - NS;8 525 $;0,64 %
Artiste - Danse - ON;406 348 $;30,32 %
Artiste - Danse - PE;11 000 $;0,82 %
Artiste - Danse - QC;424 641 $;31,68 %
Artiste - Danse - YT;15 000 $;1,12 %
Artiste - Bureau de l'équité total;706 858 $;2,25 %
Artiste - Bureau de l'équité - AB;59 000 $;8,35 %
Artiste - Bureau de l'équité - BC;154 215 $;21,82 %
Artiste - Bureau de l'équité - International;7 000 $;0,99 %
Artiste - Bureau de l'équité - MB;27 775 $;3,93 %
Artiste - Bureau de l'équité - NL;16 700 $;2,36 %
Artiste - Bureau de l'équité - NS;18 800 $;2,66 %
Artiste - Bureau de l'équité - ON;271 953 $;38,47 %
Artiste - Bureau de l'équité - PE;900 $;0,13 %
Artiste - Bureau de l'équité - QC;130 340 $;18,44 %
Artiste - Bureau de l'équité - SK;20 175 $;2,85 %
Artiste - Bureau Inter-arts total;534 600 $;1,70 %
Artiste - Bureau Inter-arts - AB;4 000 $;0,75 %
Artiste - Bureau Inter-arts - BC;86 700 $;16,22 %
Artiste - Bureau Inter-arts - International;29 500 $;5,52 %
Artiste - Bureau Inter-arts - MB;20 750 $;3,88 %
Artiste - Bureau Inter-arts - NS;2 500 $;0,47 %
Artiste - Bureau Inter-arts - ON;90 600 $;16,95 %
Artiste - Bureau Inter-arts - QC;274 250 $;51,30 %
Artiste - Bureau Inter-arts - SK;23 800 $;4,45 %
Artiste - Bureau Inter-arts - YT;2 500 $;0,47 %
Artiste - Arts médiatiques total;5 258 380 $;16,75 %
Artiste - Arts médiatiques - AB;111 000 $;2,11 %
Artiste - Arts médiatiques - BC;871 300 $;16,57 %
Artiste - Arts médiatiques - International;185 000 $;3,52 %
Artiste - Arts médiatiques - MB;139 900 $;2,66 %
Artiste - Arts médiatiques - NB;57 200 $;1,09 %
Artiste - Arts médiatiques - NL;24 100 $;0,46 %
Artiste - Arts médiatiques - NS;61 450 $;1,17 %
Artiste - Arts médiatiques - NT;23 000 $;0,44 %
Artiste - Arts médiatiques - NU;119 400 $;2,27 %
Artiste - Arts médiatiques - ON;1 335 250 $;25,39 %
Artiste - Arts médiatiques - QC;2 194 430 $;41,73 %
Artiste - Arts médiatiques - SK;109 850 $;2,09 %
Artiste - Arts médiatiques - YT;26 500 $;0,50 %
Artiste - Musique total;4 209 763 $;13,41 %
Artiste - Musique - AB;97 200 $;2,31 %
Artiste - Musique - BC;465 170 $;11,05 %
Artiste - Musique - International;287 740 $;6,84 %
Artiste - Musique - MB;101 175 $;2,40 %
Artiste - Musique - NB;34 700 $;0,82 %
Artiste - Musique - NL;19 732 $;0,47 %
Artiste - Musique - NS;59 109 $;1,40 %
Artiste - Musique - NT;6 000 $;0,14 %
Artiste - Musique - NU;3 850 $;0,09 %
Artiste - Musique - ON;1 835 088 $;43,59 %
Artiste - Musique - PE;118 000 $;2,80 %
Artiste - Musique - QC;1 144 149 $;27,18 %
Artiste - Musique - SK;23 350 $;0,55 %
Artiste - Musique - YT;14 500 $;0,34 %
Artiste - Service des prix total;888 500 $;2,83 %
Artiste - Service des prix - AB;60 000 $;6,75 %
Artiste - Service des prix - BC;94 500 $;10,64 %
Artiste - Service des prix - International;3 000 $;0,34 %
Artiste - Service des prix - MB;2 000 $;0,23 %
Artiste - Service des prix - NB;1 000 $;0,11 %
Artiste - Service des prix - NS;26 000 $;2,93 %
Artiste - Service des prix - ON;338 500 $;38,10 %
Artiste - Service des prix - QC;336 500 $;37,87 %
Artiste - Service des prix - SK;27 000 $;3,04 %
Artiste - Théâtre total;979 500 $;3,12 %
Artiste - Théâtre - AB;37 250 $;3,80 %
Artiste - Théâtre - BC;97 200 $;9,92 %
Artiste - Théâtre - International;3 450 $;0,35 %
Artiste - Théâtre - MB;33 300 $;3,40 %
Artiste - Théâtre - NB;15 250 $;1,56 %
Artiste - Théâtre - NL;30 000 $;3,06 %
Artiste - Théâtre - NS;58 400 $;5,96 %
Artiste - Théâtre - ON;462 250 $;47,19 %
Artiste - Théâtre - QC;237 600 $;24,26 %
Artiste - Théâtre - SK;800 $;0,08 %
Artiste - Théâtre - YT;4 000 $;0,41 %
Artiste - Arts visuels total;5 713 900 $;18,20 %
Artiste - Arts visuels - AB;272 350 $;4,77 %
Artiste - Arts visuels - BC;1 013 900 $;17,74 %
Artiste - Arts visuels - International;459 800 $;8,05 %
Artiste - Arts visuels - MB;229 500 $;4,02 %
Artiste - Arts visuels - NB;63 500 $;1,11 %
Artiste - Arts visuels - NL;24 300 $;0,43 %
Artiste - Arts visuels - NS;139 800 $;2,45 %
Artiste - Arts visuels - NT;20 000 $;0,35 %
Artiste - Arts visuels - NU;5 000 $;0,09 %
Artiste - Arts visuels - ON;1 798 750 $;31,48 %
Artiste - Arts visuels - QC;1 580 300 $;27,66 %
Artiste - Arts visuels - SK;101 200 $;1,77 %
Artiste - Arts visuels - YT;5 500 $;0,10 %
Artiste - Lettres et édition total;4 030 150 $;12,84 %
Artiste - Lettres et édition - AB;195 750 $;4,86 %
Artiste - Lettres et édition - BC;889 250 $;22,06 %
Artiste - Lettres et édition - International;118 750 $;2,95 %
Artiste - Lettres et édition - MB;102 500 $;2,54 %
Artiste - Lettres et édition - NB;2 000 $;0,05 %
Artiste - Lettres et édition - NL;59 900 $;1,49 %
Artiste - Lettres et édition - NS;148 300 $;3,68 %
Artiste - Lettres et édition - NT;5 000 $;0,12 %
Artiste - Lettres et édition - ON;1 265 250 $;31,39 %
Artiste - Lettres et édition - QC;1 175 450 $;29,17 %
Artiste - Lettres et édition - SK;68 000 $;1,69 %
Organisme total;153 366 713 $;83,01 %
Organisme - Bureau des arts autochtones total;2 600 040 $;1,70 %
Organisme - Bureau des arts autochtones - AB;181 100 $;6,97 %
Organisme - Bureau des arts autochtones - BC;834 650 $;32,10 %
Organisme - Bureau des arts autochtones - International;50 000 $;1,92 %
Organisme - Bureau des arts autochtones - MB;92 000 $;3,54 %
Organisme - Bureau des arts autochtones - NL;55 000 $;2,12 %
Organisme - Bureau des arts autochtones - NT;4 000 $;0,15 %
Organisme - Bureau des arts autochtones - NU;327 000 $;12,58 %
Organisme - Bureau des arts autochtones - ON;633 700 $;24,37 %
Organisme - Bureau des arts autochtones - PE;20 000 $;0,77 %
Organisme - Bureau des arts autochtones - QC;331 590 $;12,75 %
Organisme - Bureau des arts autochtones - SK;51 000 $;1,96 %
Organisme - Bureau des arts autochtones - YT;20 000 $;0,77 %
Organisme - Programmes de subventions aux arts total;28 397 000 $;18,52 %
Organisme - Programmes de subventions aux arts - AB;1 906 000 $;6,71 %
Organisme - Programmes de subventions aux arts - BC;4 145 000 $;14,60 %
Organisme - Programmes de subventions aux arts - MB;1 250 000 $;4,40 %
Organisme - Programmes de subventions aux arts - NB;880 000 $;3,10 %
Organisme - Programmes de subventions aux arts - NL;577 000 $;2,03 %
Organisme - Programmes de subventions aux arts - NS;1 313 000 $;4,62 %
Organisme - Programmes de subventions aux arts - NT;1 015 000 $;3,57 %
Organisme - Programmes de subventions aux arts - NU;675 000 $;2,38 %
Organisme - Programmes de subventions aux arts - ON;7 827 000 $;27,56 %
Organisme - Programmes de subventions aux arts - QC;7 459 000 $;26,27 %
Organisme - Programmes de subventions aux arts - SK;895 000 $;3,15 %
Organisme - Programmes de subventions aux arts - YT;455 000 $;1,60 %
Organisme - Développement des publics et des marchés total;2 564 261 $;1,67 %
Organisme - Développement des publics et des marchés - AB;60 825 $;2,37 %
Organisme - Développement des publics et des marchés - BC;340 134 $;13,26 %
Organisme - Développement des publics et des marchés - International;74 320 $;2,90 %
Organisme - Développement des publics et des marchés - MB;27 700 $;1,08 %
Organisme - Développement des publics et des marchés - NB;50 795 $;1,98 %
Organisme - Développement des publics et des marchés - NL;4 685 $;0,18 %
Organisme - Développement des publics et des marchés - NS;71 155 $;2,77 %
Organisme - Développement des publics et des marchés - NT;3 000 $;0,12 %
Organisme - Développement des publics et des marchés - NU;27 355 $;1,07 %
Organisme - Développement des publics et des marchés - ON;714 754 $;27,87 %
Organisme - Développement des publics et des marchés - PE;2 255 $;0,09 %
Organisme - Développement des publics et des marchés - QC;1 142 348 $;44,55 %
Organisme - Développement des publics et des marchés - SK;9 535 $;0,37 %
Organisme - Développement des publics et des marchés - YT;35 400 $;1,38 %
Organisme - Danse total;18 980 795 $;12,38 %
Organisme - Danse - AB;780 685 $;4,11 %
Organisme - Danse - BC;2 911 967 $;15,34 %
Organisme - Danse - MB;1 337 000 $;7,04 %
Organisme - Danse - NB;215 750 $;1,14 %
Organisme - Danse - NL;110 000 $;0,58 %
Organisme - Danse - NS;224 200 $;1,18 %
Organisme - Danse - ON;6 313 412 $;33,26 %
Organisme - Danse - QC;7 082 781 $;37,32 %
Organisme - Danse - SK;5 000 $;0,03 %
Organisme - Bureau de l'équité total;743 901 $;0,49 %
Organisme - Bureau de l'équité - AB;66 767 $;8,98 %
Organisme - Bureau de l'équité - BC;131 000 $;17,61 %
Organisme - Bureau de l'équité - MB;52 000 $;6,99 %
Organisme - Bureau de l'équité - NS;27 000 $;3,63 %
Organisme - Bureau de l'équité - ON;322 534 $;43,36 %
Organisme - Bureau de l'équité - QC;144 600 $;19,44 %
Organisme - Bureau Inter-arts total;2 689 200 $;1,75 %
Organisme - Bureau Inter-arts - AB;100 500 $;3,74 %
Organisme - Bureau Inter-arts - BC;439 600 $;16,35 %
Organisme - Bureau Inter-arts - NB;51 700 $;1,92 %
Organisme - Bureau Inter-arts - NS;44 500 $;1,65 %
Organisme - Bureau Inter-arts - NT;30 000 $;1,12 %
Organisme - Bureau Inter-arts - NU;70 000 $;2,60 %
Organisme - Bureau Inter-arts - ON;445 400 $;16,56 %
Organisme - Bureau Inter-arts - QC;1 321 500 $;49,14 %
Organisme - Bureau Inter-arts - SK;168 000 $;6,25 %
Organisme - Bureau Inter-arts - YT;18 000 $;0,67 %
Organisme - Arts médiatiques total;9 546 962 $;6,22 %
Organisme - Arts médiatiques - AB;524 839 $;5,50 %
Organisme - Arts médiatiques - BC;1 296 528 $;13,58 %
Organisme - Arts médiatiques - MB;662 722 $;6,94 %
Organisme - Arts médiatiques - NB;168 349 $;1,76 %
Organisme - Arts médiatiques - NL;168 237 $;1,76 %
Organisme - Arts médiatiques - NS;351 664 $;3,68 %
Organisme - Arts médiatiques - NT;56 164 $;0,59 %
Organisme - Arts médiatiques - NU;84 100 $;0,88 %
Organisme - Arts médiatiques - ON;3 054 088 $;31,99 %
Organisme - Arts médiatiques - PE;63 639 $;0,67 %
Organisme - Arts médiatiques - QC;2 722 091 $;28,51 %
Organisme - Arts médiatiques - SK;277 041 $;2,90 %
Organisme - Arts médiatiques - YT;117 500 $;1,23 %
Organisme - Musique total;25 046 825 $;16,33 %
Organisme - Musique - AB;2 517 313 $;10,05 %
Organisme - Musique - BC;4 202 648 $;16,78 %
Organisme - Musique - International;72 900 $;0,29 %
Organisme - Musique - MB;1 461 020 $;5,83 %
Organisme - Musique - NB;82 054 $;0,33 %
Organisme - Musique - NL;178 557 $;0,71 %
Organisme - Musique - NS;857 096 $;3,42 %
Organisme - Musique - NT;3 000 $;0,01 %
Organisme - Musique - NU;6 000 $;0,02 %
Organisme - Musique - ON;8 725 288 $;34,84 %
Organisme - Musique - PE;15 215 $;0,06 %
Organisme - Musique - QC;6 584 874 $;26,29 %
Organisme - Musique - SK;340 860 $;1,36 %
Organisme - Service des prix total;130 000 $;0,08 %
Organisme - Service des prix - MB;18 000 $;13,85 %
Organisme - Service des prix - ON;81 000 $;62,31 %
Organisme - Service des prix - QC;31 000 $;23,85 %
Organisme - Théâtre total;27 150 182 $;17,70 %
Organisme - Théâtre - AB;1 926 345 $;7,10 %
Organisme - Théâtre - BC;3 075 761 $;11,33 %
Organisme - Théâtre - International;43 453 $;0,16 %
Organisme - Théâtre - MB;1 012 877 $;3,73 %
Organisme - Théâtre - NB;505 520 $;1,86 %
Organisme - Théâtre - NL;564 841 $;2,08 %
Organisme - Théâtre - NS;1 038 000 $;3,82 %
Organisme - Théâtre - NT;24 000 $;0,09 %
Organisme - Théâtre - ON;9 057 664 $;33,36 %
Organisme - Théâtre - PE;16 000 $;0,06 %
Organisme - Théâtre - QC;8 984 761 $;33,09 %
Organisme - Théâtre - SK;779 810 $;2,87 %
Organisme - Théâtre - YT;121 150 $;0,45 %
Organisme - Arts visuels total;16 111 400 $;10,51 %
Organisme - Arts visuels - AB;899 450 $;5,58 %
Organisme - Arts visuels - BC;2 465 950 $;15,31 %
Organisme - Arts visuels - International;268 000 $;1,66 %
Organisme - Arts visuels - MB;633 000 $;3,93 %
Organisme - Arts visuels - NB;447 300 $;2,78 %
Organisme - Arts visuels - NL;218 800 $;1,36 %
Organisme - Arts visuels - NS;583 900 $;3,62 %
Organisme - Arts visuels - ON;5 023 400 $;31,18 %
Organisme - Arts visuels - PE;169 700 $;1,05 %
Organisme - Arts visuels - QC;4 321 400 $;26,82 %
Organisme - Arts visuels - SK;992 400 $;6,16 %
Organisme - Arts visuels - YT;88 100 $;0,55 %
Organisme - Lettres et édition total;19 406 147 $;12,65 %
Organisme - Lettres et édition - AB;386 285 $;1,99 %
Organisme - Lettres et édition - BC;2 150 780 $;11,08 %
Organisme - Lettres et édition - International;261 300 $;1,35 %
Organisme - Lettres et édition - MB;703 580 $;3,63 %
Organisme - Lettres et édition - NB;379 512 $;1,96 %
Organisme - Lettres et édition - NL;230 000 $;1,19 %
Organisme - Lettres et édition - NS;514 000 $;2,65 %
Organisme - Lettres et édition - NT;11 300 $;0,06 %
Organisme - Lettres et édition - NU;67 600 $;0,35 %
Organisme - Lettres et édition - ON;6 060 135 $;31,23 %
Organisme - Lettres et édition - PE;57 750 $;0,30 %
Organisme - Lettres et édition - QC;8 120 415 $;41,84 %
Organisme - Lettres et édition - SK;454 590 $;2,34 %
Organisme - Lettres et édition - YT;8 900 $;0,05 %