Section, region and recipient type;Granted amount;% of granted amount based on parent level
Grand Total; $	184 755 746 ;100,00 %
Music Total; $	29 256 588 ;15,84 %
Music - AB Total; $	2 614 513 ;8,94 %
Music - AB - Individual; $	97 200 ;3,72 %
Music - AB - Organization; $	2 517 313 ;96,28 %
Music - BC Total; $	4 667 818 ;15,95 %
Music - BC - Individual; $	465 170 ;9,97 %
Music - BC - Organization; $	4 202 648 ;90,03 %
Music - International Total; $	360 640 ;1,23 %
Music - International - Individual; $	287 740 ;79,79 %
Music - International - Organization; $	72 900 ;20,21 %
Music - MB Total; $	1 562 195 ;5,34 %
Music - MB - Individual; $	101 175 ;6,48 %
Music - MB - Organization; $	1 461 020 ;93,52 %
Music - NB Total; $	116 754 ;0,40 %
Music - NB - Individual; $	34 700 ;29,72 %
Music - NB - Organization; $	82 054 ;70,28 %
Music - NL Total; $	198 289 ;0,68 %
Music - NL - Individual; $	19 732 ;9,95 %
Music - NL - Organization; $	178 557 ;90,05 %
Music - NS Total; $	916 205 ;3,13 %
Music - NS - Individual; $	59 109 ;6,45 %
Music - NS - Organization; $	857 096 ;93,55 %
Music - NT Total; $	9 000 ;0,03 %
Music - NT - Individual; $	6 000 ;66,67 %
Music - NT - Organization; $	3 000 ;33,33 %
Music - NU Total; $	9 850 ;0,03 %
Music - NU - Individual; $	3 850 ;39,09 %
Music - NU - Organization; $	6 000 ;60,91 %
Music - ON Total; $	10 560 376 ;36,10 %
Music - ON - Individual; $	1 835 088 ;17,38 %
Music - ON - Organization; $	8 725 288 ;82,62 %
Music - PE Total; $	133 215 ;0,46 %
Music - PE - Individual; $	118 000 ;88,58 %
Music - PE - Organization; $	15 215 ;11,42 %
Music - QC Total; $	7 729 023 ;26,42 %
Music - QC - Individual; $	1 144 149 ;14,80 %
Music - QC - Organization; $	6 584 874 ;85,20 %
Music - SK Total; $	364 210 ;1,24 %
Music - SK - Individual; $	23 350 ;6,41 %
Music - SK - Organization; $	340 860 ;93,59 %
Music - YT Total; $	14 500 ;0,05 %
Music - YT - Individual; $	14 500 ;100,00 %
Theatre Total; $	28 129 682 ;15,23 %
Theatre - AB Total; $	1 963 595 ;6,98 %
Theatre - AB - Individual; $	37 250 ;1,90 %
Theatre - AB - Organization; $	1 926 345 ;98,10 %
Theatre - BC Total; $	3 172 961 ;11,28 %
Theatre - BC - Individual; $	97 200 ;3,06 %
Theatre - BC - Organization; $	3 075 761 ;96,94 %
Theatre - International Total; $	46 903 ;0,17 %
Theatre - International - Individual; $	3 450 ;7,36 %
Theatre - International - Organization; $	43 453 ;92,64 %
Theatre - MB Total; $	1 046 177 ;3,72 %
Theatre - MB - Individual; $	33 300 ;3,18 %
Theatre - MB - Organization; $	1 012 877 ;96,82 %
Theatre - NB Total; $	520 770 ;1,85 %
Theatre - NB - Individual; $	15 250 ;2,93 %
Theatre - NB - Organization; $	505 520 ;97,07 %
Theatre - NL Total; $	594 841 ;2,11 %
Theatre - NL - Individual; $	30 000 ;5,04 %
Theatre - NL - Organization; $	564 841 ;94,96 %
Theatre - NS Total; $	1 096 400 ;3,90 %
Theatre - NS - Individual; $	58 400 ;5,33 %
Theatre - NS - Organization; $	1 038 000 ;94,67 %
Theatre - NT Total; $	24 000 ;0,09 %
Theatre - NT - Organization; $	24 000 ;100,00 %
Theatre - ON Total; $	9 519 914 ;33,84 %
Theatre - ON - Individual; $	462 250 ;4,86 %
Theatre - ON - Organization; $	9 057 664 ;95,14 %
Theatre - PE Total; $	16 000 ;0,06 %
Theatre - PE - Organization; $	16 000 ;100,00 %
Theatre - QC Total; $	9 222 361 ;32,79 %
Theatre - QC - Individual; $	237 600 ;2,58 %
Theatre - QC - Organization; $	8 984 761 ;97,42 %
Theatre - SK Total; $	780 610 ;2,78 %
Theatre - SK - Individual; $	800 ;0,10 %
Theatre - SK - Organization; $	779 810 ;99,90 %
Theatre - YT Total; $	125 150 ;0,44 %
Theatre - YT - Individual; $	4 000 ;3,20 %
Theatre - YT - Organization; $	121 150 ;96,80 %
Writing and Publishing Total; $	23 436 297 ;12,69 %
Writing and Publishing - AB Total; $	582 035 ;2,48 %
Writing and Publishing - AB - Individual; $	195 750 ;33,63 %
Writing and Publishing - AB - Organization; $	386 285 ;66,37 %
Writing and Publishing - BC Total; $	3 040 030 ;12,97 %
Writing and Publishing - BC - Individual; $	889 250 ;29,25 %
Writing and Publishing - BC - Organization; $	2 150 780 ;70,75 %
Writing and Publishing - International Total; $	380 050 ;1,62 %
Writing and Publishing - International - Individual; $	118 750 ;31,25 %
Writing and Publishing - International - Organization; $	261 300 ;68,75 %
Writing and Publishing - MB Total; $	806 080 ;3,44 %
Writing and Publishing - MB - Individual; $	102 500 ;12,72 %
Writing and Publishing - MB - Organization; $	703 580 ;87,28 %
Writing and Publishing - NB Total; $	381 512 ;1,63 %
Writing and Publishing - NB - Individual; $	2 000 ;0,52 %
Writing and Publishing - NB - Organization; $	379 512 ;99,48 %
Writing and Publishing - NL Total; $	289 900 ;1,24 %
Writing and Publishing - NL - Individual; $	59 900 ;20,66 %
Writing and Publishing - NL - Organization; $	230 000 ;79,34 %
Writing and Publishing - NS Total; $	662 300 ;2,83 %
Writing and Publishing - NS - Individual; $	148 300 ;22,39 %
Writing and Publishing - NS - Organization; $	514 000 ;77,61 %
Writing and Publishing - NT Total; $	16 300 ;0,07 %
Writing and Publishing - NT - Individual; $	5 000 ;30,67 %
Writing and Publishing - NT - Organization; $	11 300 ;69,33 %
Writing and Publishing - NU Total; $	67 600 ;0,29 %
Writing and Publishing - NU - Organization; $	67 600 ;100,00 %
Writing and Publishing - ON Total; $	7 325 385 ;31,26 %
Writing and Publishing - ON - Individual; $	1 265 250 ;17,27 %
Writing and Publishing - ON - Organization; $	6 060 135 ;82,73 %
Writing and Publishing - PE Total; $	57 750 ;0,25 %
Writing and Publishing - PE - Organization; $	57 750 ;100,00 %
Writing and Publishing - QC Total; $	9 295 865 ;39,66 %
Writing and Publishing - QC - Individual; $	1 175 450 ;12,64 %
Writing and Publishing - QC - Organization; $	8 120 415 ;87,36 %
Writing and Publishing - SK Total; $	522 590 ;2,23 %
Writing and Publishing - SK - Individual; $	68 000 ;13,01 %
Writing and Publishing - SK - Organization; $	454 590 ;86,99 %
Writing and Publishing - YT Total; $	8 900 ;0,04 %
Writing and Publishing - YT - Organization; $	8 900 ;100,00 %
Visual Arts Total; $	21 825 300 ;11,81 %
Visual Arts - AB Total; $	1 171 800 ;5,37 %
Visual Arts - AB - Individual; $	272 350 ;23,24 %
Visual Arts - AB - Organization; $	899 450 ;76,76 %
Visual Arts - BC Total; $	3 479 850 ;15,94 %
Visual Arts - BC - Individual; $	1 013 900 ;29,14 %
Visual Arts - BC - Organization; $	2 465 950 ;70,86 %
Visual Arts - International Total; $	727 800 ;3,33 %
Visual Arts - International - Individual; $	459 800 ;63,18 %
Visual Arts - International - Organization; $	268 000 ;36,82 %
Visual Arts - MB Total; $	862 500 ;3,95 %
Visual Arts - MB - Individual; $	229 500 ;26,61 %
Visual Arts - MB - Organization; $	633 000 ;73,39 %
Visual Arts - NB Total; $	510 800 ;2,34 %
Visual Arts - NB - Individual; $	63 500 ;12,43 %
Visual Arts - NB - Organization; $	447 300 ;87,57 %
Visual Arts - NL Total; $	243 100 ;1,11 %
Visual Arts - NL - Individual; $	24 300 ;10,00 %
Visual Arts - NL - Organization; $	218 800 ;90,00 %
Visual Arts - NS Total; $	723 700 ;3,32 %
Visual Arts - NS - Individual; $	139 800 ;19,32 %
Visual Arts - NS - Organization; $	583 900 ;80,68 %
Visual Arts - NT Total; $	20 000 ;0,09 %
Visual Arts - NT - Individual; $	20 000 ;100,00 %
Visual Arts - NU Total; $	5 000 ;0,02 %
Visual Arts - NU - Individual; $	5 000 ;100,00 %
Visual Arts - ON Total; $	6 822 150 ;31,26 %
Visual Arts - ON - Individual; $	1 798 750 ;26,37 %
Visual Arts - ON - Organization; $	5 023 400 ;73,63 %
Visual Arts - PE Total; $	169 700 ;0,78 %
Visual Arts - PE - Organization; $	169 700 ;100,00 %
Visual Arts - QC Total; $	5 901 700 ;27,04 %
Visual Arts - QC - Individual; $	1 580 300 ;26,78 %
Visual Arts - QC - Organization; $	4 321 400 ;73,22 %
Visual Arts - SK Total; $	1 093 600 ;5,01 %
Visual Arts - SK - Individual; $	101 200 ;9,25 %
Visual Arts - SK - Organization; $	992 400 ;90,75 %
Visual Arts - YT Total; $	93 600 ;0,43 %
Visual Arts - YT - Individual; $	5 500 ;5,88 %
Visual Arts - YT - Organization; $	88 100 ;94,12 %
Dance Total; $	20 321 166 ;11,00 %
Dance - AB Total; $	913 785 ;4,50 %
Dance - AB - Individual; $	133 100 ;14,57 %
Dance - AB - Organization; $	780 685 ;85,43 %
Dance - BC Total; $	3 158 168 ;15,54 %
Dance - BC - Individual; $	246 201 ;7,80 %
Dance - BC - Organization; $	2 911 967 ;92,20 %
Dance - International Total; $	26 677 ;0,13 %
Dance - International - Individual; $	26 677 ;100,00 %
Dance - MB Total; $	1 370 300 ;6,74 %
Dance - MB - Individual; $	33 300 ;2,43 %
Dance - MB - Organization; $	1 337 000 ;97,57 %
Dance - NB Total; $	215 750 ;1,06 %
Dance - NB - Organization; $	215 750 ;100,00 %
Dance - NL Total; $	145 579 ;0,72 %
Dance - NL - Individual; $	35 579 ;24,44 %
Dance - NL - Organization; $	110 000 ;75,56 %
Dance - NS Total; $	232 725 ;1,15 %
Dance - NS - Individual; $	8 525 ;3,66 %
Dance - NS - Organization; $	224 200 ;96,34 %
Dance - ON Total; $	6 719 760 ;33,07 %
Dance - ON - Individual; $	406 348 ;6,05 %
Dance - ON - Organization; $	6 313 412 ;93,95 %
Dance - PE Total; $	11 000 ;0,05 %
Dance - PE - Individual; $	11 000 ;100,00 %
Dance - QC Total; $	7 507 422 ;36,94 %
Dance - QC - Individual; $	424 641 ;5,66 %
Dance - QC - Organization; $	7 082 781 ;94,34 %
Dance - SK Total; $	5 000 ;0,02 %
Dance - SK - Organization; $	5 000 ;100,00 %
Dance - YT Total; $	15 000 ;0,07 %
Dance - YT - Individual; $	15 000 ;100,00 %
Media Arts Total; $	14 805 342 ;8,01 %
Media Arts - AB Total; $	635 839 ;4,29 %
Media Arts - AB - Individual; $	111 000 ;17,46 %
Media Arts - AB - Organization; $	524 839 ;82,54 %
Media Arts - BC Total; $	2 167 828 ;14,64 %
Media Arts - BC - Individual; $	871 300 ;40,19 %
Media Arts - BC - Organization; $	1 296 528 ;59,81 %
Media Arts - MB - Individual; $	139 900 ;17,43 %
Media Arts - International - Individual; $	185 000 ;100,00 %
Media Arts - International Total; $	185 000 ;1,25 %
Media Arts - MB Total; $	802 622 ;5,42 %
Media Arts - MB - Organization; $	662 722 ;82,57 %
Media Arts - NB Total; $	225 549 ;1,52 %
Media Arts - NB - Individual; $	57 200 ;25,36 %
Media Arts - NB - Organization; $	168 349 ;74,64 %
Media Arts - NL Total; $	192 337 ;1,30 %
Media Arts - NL - Individual; $	24 100 ;12,53 %
Media Arts - NL - Organization; $	168 237 ;87,47 %
Media Arts - NS Total; $	413 114 ;2,79 %
Media Arts - NS - Individual; $	61 450 ;14,87 %
Media Arts - NS - Organization; $	351 664 ;85,13 %
Media Arts - NT Total; $	79 164 ;0,53 %
Media Arts - NT - Individual; $	23 000 ;29,05 %
Media Arts - NT - Organization; $	56 164 ;70,95 %
Media Arts - NU Total; $	203 500 ;1,37 %
Media Arts - NU - Individual; $	119 400 ;58,67 %
Media Arts - NU - Organization; $	84 100 ;41,33 %
Media Arts - ON Total; $	4 389 338 ;29,65 %
Media Arts - ON - Individual; $	1 335 250 ;30,42 %
Media Arts - ON - Organization; $	3 054 088 ;69,58 %
Media Arts - PE Total; $	63 639 ;0,43 %
Media Arts - PE - Organization; $	63 639 ;100,00 %
Media Arts - QC Total; $	4 916 521 ;33,21 %
Media Arts - QC - Individual; $	2 194 430 ;44,63 %
Media Arts - QC - Organization; $	2 722 091 ;55,37 %
Media Arts - SK Total; $	386 891 ;2,61 %
Media Arts - SK - Individual; $	109 850 ;28,39 %
Media Arts - SK - Organization; $	277 041 ;71,61 %
Media Arts - YT Total; $	144 000 ;0,97 %
Media Arts - YT - Individual; $	26 500 ;18,40 %
Media Arts - YT - Organization; $	117 500 ;81,60 %
Audience & Market Development Total; $	3 013 322 ;1,63 %
Audience & Market Development - AB Total; $	69 605 ;2,31 %
Audience & Market Development - AB - Individual; $	8 780 ;12,61 %
Audience & Market Development - AB - Organization; $	60 825 ;87,39 %
Audience & Market Development - BC Total; $	388 449 ;12,89 %
Audience & Market Development - BC - Individual; $	48 315 ;12,44 %
Audience & Market Development - BC - Organization; $	340 134 ;87,56 %
Audience & Market Development - International Total; $	83 540 ;2,77 %
Audience & Market Development - International - Individual; $	9 220 ;11,04 %
Audience & Market Development - International - Organization; $	74 320 ;88,96 %
Audience & Market Development - MB Total; $	47 420 ;1,57 %
Audience & Market Development - MB - Individual; $	19 720 ;41,59 %
Audience & Market Development - MB - Organization; $	27 700 ;58,41 %
Audience & Market Development - NB Total; $	59 545 ;1,98 %
Audience & Market Development - NB - Individual; $	8 750 ;14,69 %
Audience & Market Development - NB - Organization; $	50 795 ;85,31 %
Audience & Market Development - NL Total; $	4 685 ;0,16 %
Audience & Market Development - NL - Organization; $	4 685 ;100,00 %
Audience & Market Development - NS Total; $	76 175 ;2,53 %
Audience & Market Development - NS - Individual; $	5 020 ;6,59 %
Audience & Market Development - NS - Organization; $	71 155 ;93,41 %
Audience & Market Development - NT Total; $	3 665 ;0,12 %
Audience & Market Development - NT - Individual; $	665 ;18,14 %
Audience & Market Development - NT - Organization; $	3 000 ;81,86 %
Audience & Market Development - NU Total; $	35 355 ;1,17 %
Audience & Market Development - NU - Individual; $	8 000 ;22,63 %
Audience & Market Development - NU - Organization; $	27 355 ;77,37 %
Audience & Market Development - ON Total; $	865 645 ;28,73 %
Audience & Market Development - ON - Individual; $	150 891 ;17,43 %
Audience & Market Development - ON - Organization; $	714 754 ;82,57 %
Audience & Market Development - PE Total; $	26 890 ;0,89 %
Audience & Market Development - PE - Individual; $	24 635 ;91,61 %
Audience & Market Development - PE - Organization; $	2 255 ;8,39 %
Audience & Market Development - QC Total; $	1 287 873 ;42,74 %
Audience & Market Development - QC - Individual; $	145 525 ;11,30 %
Audience & Market Development - QC - Organization; $	1 142 348 ;88,70 %
Audience & Market Development - SK Total; $	24 375 ;0,81 %
Audience & Market Development - SK - Individual; $	14 840 ;60,88 %
Audience & Market Development - SK - Organization; $	9 535 ;39,12 %
Audience & Market Development - YT Total; $	40 100 ;1,33 %
Audience & Market Development - YT - Individual; $	4 700 ;11,72 %
Audience & Market Development - YT - Organization; $	35 400 ;88,28 %
Inter-Arts Office Total; $	3 223 800 ;1,74 %
Inter-Arts Office - AB Total; $	104 500 ;3,24 %
Inter-Arts Office - AB - Individual; $	4 000 ;3,83 %
Inter-Arts Office - AB - Organization; $	100 500 ;96,17 %
Inter-Arts Office - BC Total; $	526 300 ;16,33 %
Inter-Arts Office - BC - Individual; $	86 700 ;16,47 %
Inter-Arts Office - BC - Organization; $	439 600 ;83,53 %
Inter-Arts Office - International Total; $	29 500 ;0,92 %
Inter-Arts Office - International - Individual; $	29 500 ;100,00 %
Inter-Arts Office - MB Total; $	20 750 ;0,64 %
Inter-Arts Office - MB - Individual; $	20 750 ;100,00 %
Inter-Arts Office - NB Total; $	51 700 ;1,60 %
Inter-Arts Office - NB - Organization; $	51 700 ;100,00 %
Inter-Arts Office - NS Total; $	47 000 ;1,46 %
Inter-Arts Office - NS - Individual; $	2 500 ;5,32 %
Inter-Arts Office - NS - Organization; $	44 500 ;94,68 %
Inter-Arts Office - NT Total; $	30 000 ;0,93 %
Inter-Arts Office - NT - Organization; $	30 000 ;100,00 %
Inter-Arts Office - NU Total; $	70 000 ;2,17 %
Inter-Arts Office - NU - Organization; $	70 000 ;100,00 %
Inter-Arts Office - ON Total; $	536 000 ;16,63 %
Inter-Arts Office - ON - Individual; $	90 600 ;16,90 %
Inter-Arts Office - ON - Organization; $	445 400 ;83,10 %
Inter-Arts Office - QC Total; $	1 595 750 ;49,50 %
Inter-Arts Office - QC - Individual; $	274 250 ;17,19 %
Inter-Arts Office - QC - Organization; $	1 321 500 ;82,81 %
Inter-Arts Office - SK Total; $	191 800 ;5,95 %
Inter-Arts Office - SK - Individual; $	23 800 ;12,41 %
Inter-Arts Office - SK - Organization; $	168 000 ;87,59 %
Inter-Arts Office - YT Total; $	20 500 ;0,64 %
Inter-Arts Office - YT - Individual; $	2 500 ;12,20 %
Inter-Arts Office - YT - Organization; $	18 000 ;87,80 %
Aboriginal Arts Office Total; $	3 214 990 ;1,74 %
Aboriginal Arts Office - AB Total; $	228 100 ;7,09 %
Aboriginal Arts Office - AB - Individual; $	47 000 ;20,60 %
Aboriginal Arts Office - AB - Organization; $	181 100 ;79,40 %
Aboriginal Arts Office - BC Total; $	906 150 ;28,19 %
Aboriginal Arts Office - BC - Individual; $	71 500 ;7,89 %
Aboriginal Arts Office - BC - Organization; $	834 650 ;92,11 %
Aboriginal Arts Office - International Total; $	50 000 ;1,56 %
Aboriginal Arts Office - International - Organization; $	50 000 ;100,00 %
Aboriginal Arts Office - MB Total; $	92 000 ;2,86 %
Aboriginal Arts Office - MB - Organization; $	92 000 ;100,00 %
Aboriginal Arts Office - NB Total; $	4 500 ;0,14 %
Aboriginal Arts Office - NB - Individual; $	4 500 ;100,00 %
Aboriginal Arts Office - NL Total; $	55 000 ;1,71 %
Aboriginal Arts Office - NL - Organization; $	55 000 ;100,00 %
Aboriginal Arts Office - NT Total; $	29 000 ;0,90 %
Aboriginal Arts Office - NT - Individual; $	25 000 ;86,21 %
Aboriginal Arts Office - NT - Organization; $	4 000 ;13,79 %
Aboriginal Arts Office - NU Total; $	327 000 ;10,17 %
Aboriginal Arts Office - NU - Organization; $	327 000 ;100,00 %
Aboriginal Arts Office - ON Total; $	879 400 ;27,35 %
Aboriginal Arts Office - ON - Individual; $	245 700 ;27,94 %
Aboriginal Arts Office - ON - Organization; $	633 700 ;72,06 %
Aboriginal Arts Office - PE Total; $	20 000 ;0,62 %
Aboriginal Arts Office - PE - Organization; $	20 000 ;100,00 %
Aboriginal Arts Office - QC Total; $	543 340 ;16,90 %
Aboriginal Arts Office - QC - Individual; $	211 750 ;38,97 %
Aboriginal Arts Office - QC - Organization; $	331 590 ;61,03 %
Aboriginal Arts Office - SK Total; $	56 000 ;1,74 %
Aboriginal Arts Office - SK - Individual; $	5 000 ;8,93 %
Aboriginal Arts Office - SK - Organization; $	51 000 ;91,07 %
Aboriginal Arts Office - YT Total; $	24 500 ;0,76 %
Aboriginal Arts Office - YT - Individual; $	4 500 ;18,37 %
Aboriginal Arts Office - YT - Organization; $	20 000 ;81,63 %
Equity Office Total; $	1 450 759 ;0,79 %
Equity Office - AB Total; $	125 767 ;8,67 %
Equity Office - AB - Individual; $	59 000 ;46,91 %
Equity Office - AB - Organization; $	66 767 ;53,09 %
Equity Office - BC Total; $	285 215 ;19,66 %
Equity Office - BC - Individual; $	154 215 ;54,07 %
Equity Office - BC - Organization; $	131 000 ;45,93 %
Equity Office - International Total; $	7 000 ;0,48 %
Equity Office - International - Individual; $	7 000 ;100,00 %
Equity Office - MB Total; $	79 775 ;5,50 %
Equity Office - MB - Individual; $	27 775 ;34,82 %
Equity Office - MB - Organization; $	52 000 ;65,18 %
Equity Office - NL Total; $	16 700 ;1,15 %
Equity Office - NL - Individual; $	16 700 ;100,00 %
Equity Office - NS Total; $	45 800 ;3,16 %
Equity Office - NS - Individual; $	18 800 ;41,05 %
Equity Office - NS - Organization; $	27 000 ;58,95 %
Equity Office - ON Total; $	594 487 ;40,98 %
Equity Office - ON - Individual; $	271 953 ;45,75 %
Equity Office - ON - Organization; $	322 534 ;54,25 %
Equity Office - PE Total; $	900 ;0,06 %
Equity Office - PE - Individual; $	900 ;100,00 %
Equity Office - QC Total; $	274 940 ;18,95 %
Equity Office - QC - Individual; $	130 340 ;47,41 %
Equity Office - QC - Organization; $	144 600 ;52,59 %
Equity Office - SK Total; $	20 175 ;1,39 %
Equity Office - SK - Individual; $	20 175 ;100,00 %
Prizes Section Total; $	1 018 500 ;0,55 %
Prizes Section - AB Total; $	60 000 ;5,89 %
Prizes Section - AB - Individual; $	60 000 ;100,00 %
Prizes Section - BC Total; $	94 500 ;9,28 %
Prizes Section - BC - Individual; $	94 500 ;100,00 %
Prizes Section - International Total; $	3 000 ;0,29 %
Prizes Section - International - Individual; $	3 000 ;100,00 %
Prizes Section - MB Total; $	20 000 ;1,96 %
Prizes Section - MB - Individual; $	2 000 ;10,00 %
Prizes Section - MB - Organization; $	18 000 ;90,00 %
Prizes Section - NB Total; $	1 000 ;0,10 %
Prizes Section - NB - Individual; $	1 000 ;100,00 %
Prizes Section - NS Total; $	26 000 ;2,55 %
Prizes Section - NS - Individual; $	26 000 ;100,00 %
Prizes Section - ON Total; $	419 500 ;41,19 %
Prizes Section - ON - Individual; $	338 500 ;80,69 %
Prizes Section - ON - Organization; $	81 000 ;19,31 %
Prizes Section - QC Total; $	367 500 ;36,08 %
Prizes Section - QC - Individual; $	336 500 ;91,56 %
Prizes Section - QC - Organization; $	31 000 ;8,44 %
Prizes Section - SK Total; $	27 000 ;2,65 %
Prizes Section - SK - Individual; $	27 000 ;100,00 %
Arts Granting Programs Total; $	35 060 000 ;18,98 %
Arts Granting Programs - AB Total; $	2 051 000 ;5,85 %
Arts Granting Programs - AB - Individual; $	145 000 ;7,07 %
Arts Granting Programs - AB - Organization; $	1 906 000 ;92,93 %
Arts Granting Programs - BC Total; $	5 348 000 ;15,25 %
Arts Granting Programs - BC - Individual; $	1 203 000 ;22,49 %
Arts Granting Programs - BC - Organization; $	4 145 000 ;77,51 %
Arts Granting Programs - International Total; $	600 000 ;1,71 %
Arts Granting Programs - International - Individual; $	600 000 ;100,00 %
Arts Granting Programs - MB Total; $	1 250 000 ;3,57 %
Arts Granting Programs - MB - Organization; $	1 250 000 ;100,00 %
Arts Granting Programs - NB Total; $	880 000 ;2,51 %
Arts Granting Programs - NB - Organization; $	880 000 ;100,00 %
Arts Granting Programs - NL Total; $	627 000 ;1,79 %
Arts Granting Programs - NL - Individual; $	50 000 ;7,97 %
Arts Granting Programs - NL - Organization; $	577 000 ;92,03 %
Arts Granting Programs - NS Total; $	1 376 000 ;3,92 %
Arts Granting Programs - NS - Individual; $	63 000 ;4,58 %
Arts Granting Programs - NS - Organization; $	1 313 000 ;95,42 %
Arts Granting Programs - NT Total; $	1 015 000 ;2,90 %
Arts Granting Programs - NT - Organization; $	1 015 000 ;100,00 %
Arts Granting Programs - NU Total; $	815 000 ;2,32 %
Arts Granting Programs - NU - Individual; $	140 000 ;17,18 %
Arts Granting Programs - NU - Organization; $	675 000 ;82,82 %
Arts Granting Programs - ON Total; $	10 488 000 ;29,91 %
Arts Granting Programs - ON - Individual; $	2 661 000 ;25,37 %
Arts Granting Programs - ON - Organization; $	7 827 000 ;74,63 %
Arts Granting Programs - QC Total; $	9 260 000 ;26,41 %
Arts Granting Programs - QC - Individual; $	1 801 000 ;19,45 %
Arts Granting Programs - QC - Organization; $	7 459 000 ;80,55 %
Arts Granting Programs - SK Total; $	895 000 ;2,55 %
Arts Granting Programs - SK - Organization; $	895 000 ;100,00 %
Arts Granting Programs - YT Total; $	455 000 ;1,30 %
Arts Granting Programs - YT - Organization; $	455 000 ;100,00 %