Type de bénéficiaire, service et région;Montant recommandé;% du montant recommandé basé sur le niveau antérieur
Grand total;145 728 318 $;100,00 %
Artiste total;23 694 240 $;16,26 %
Artiste - Bureau des arts autochtones total;274 950 $;1,16 %
Artiste - Bureau des arts autochtones - AB;6 000 $;2,18 %
Artiste - Bureau des arts autochtones - BC;25 800 $;9,38 %
Artiste - Bureau des arts autochtones - MB;74 550 $;27,11 %
Artiste - Bureau des arts autochtones - NT;74 000 $;26,91 %
Artiste - Bureau des arts autochtones - ON;90 600 $;32,95 %
Artiste - Bureau des arts autochtones - QC;4 000 $;1,45 %
Artiste - Développement des publics et des marchés total;211 940 $;0,89 %
Artiste - Développement des publics et des marchés - AB;11 155 $;5,26 %
Artiste - Développement des publics et des marchés - BC;15 450 $;7,29 %
Artiste - Développement des publics et des marchés - International;1 700 $;0,80 %
Artiste - Développement des publics et des marchés - MB;5 850 $;2,76 %
Artiste - Développement des publics et des marchés - NS;950 $;0,45 %
Artiste - Développement des publics et des marchés - NT;4 345 $;2,05 %
Artiste - Développement des publics et des marchés - NU;18 890 $;8,91 %
Artiste - Développement des publics et des marchés - ON;78 525 $;37,05 %
Artiste - Développement des publics et des marchés - PE;2 245 $;1,06 %
Artiste - Développement des publics et des marchés - QC;64 530 $;30,45 %
Artiste - Développement des publics et des marchés - SK;700 $;0,33 %
Artiste - Développement des publics et des marchés - YT;7 600 $;3,59 %
Artiste - Danse total;1 306 559 $;5,51 %
Artiste - Danse - AB;56 800 $;4,35 %
Artiste - Danse - BC;298 630 $;22,86 %
Artiste - Danse - International;3 850 $;0,29 %
Artiste - Danse - MB;24 500 $;1,88 %
Artiste - Danse - NB;8 000 $;0,61 %
Artiste - Danse - NL;47 000 $;3,60 %
Artiste - Danse - NS;45 265 $;3,46 %
Artiste - Danse - ON;300 954 $;23,03 %
Artiste - Danse - PE;22 000 $;1,68 %
Artiste - Danse - QC;497 760 $;38,10 %
Artiste - Danse - YT;1 800 $;0,14 %
Artiste - Bureau de l'équité total;733 955 $;3,10 %
Artiste - Bureau de l'équité - AB;56 145 $;7,65 %
Artiste - Bureau de l'équité - BC;191 690 $;26,12 %
Artiste - Bureau de l'équité - International;8 700 $;1,19 %
Artiste - Bureau de l'équité - MB;36 320 $;4,95 %
Artiste - Bureau de l'équité - NB;16 500 $;2,25 %
Artiste - Bureau de l'équité - NL;24 300 $;3,31 %
Artiste - Bureau de l'équité - NS;11 800 $;1,61 %
Artiste - Bureau de l'équité - NT;4 130 $;0,56 %
Artiste - Bureau de l'équité - ON;252 425 $;34,39 %
Artiste - Bureau de l'équité - QC;129 445 $;17,64 %
Artiste - Bureau de l'équité - SK;2 500 $;0,34 %
Artiste - Bureau Inter-arts total;503 122 $;2,12 %
Artiste - Bureau Inter-arts - AB;44 250 $;8,80 %
Artiste - Bureau Inter-arts - BC;44 650 $;8,87 %
Artiste - Bureau Inter-arts - International;75 200 $;14,95 %
Artiste - Bureau Inter-arts - MB;21 000 $;4,17 %
Artiste - Bureau Inter-arts - NB;20 750 $;4,12 %
Artiste - Bureau Inter-arts - NS;5 000 $;0,99 %
Artiste - Bureau Inter-arts - ON;96 450 $;19,17 %
Artiste - Bureau Inter-arts - QC;194 322 $;38,62 %
Artiste - Bureau Inter-arts - SK;1 500 $;0,30 %
Artiste - Arts médiatiques total;5 289 626 $;22,32 %
Artiste - Arts médiatiques - AB;46 500 $;0,88 %
Artiste - Arts médiatiques - BC;398 600 $;7,54 %
Artiste - Arts médiatiques - International;242 200 $;4,58 %
Artiste - Arts médiatiques - MB;174 500 $;3,30 %
Artiste - Arts médiatiques - NB;85 000 $;1,61 %
Artiste - Arts médiatiques - NL;60 000 $;1,13 %
Artiste - Arts médiatiques - NS;283 500 $;5,36 %
Artiste - Arts médiatiques - NU;1 500 $;0,03 %
Artiste - Arts médiatiques - ON;2 082 876 $;39,38 %
Artiste - Arts médiatiques - QC;1 784 450 $;33,73 %
Artiste - Arts médiatiques - SK;128 000 $;2,42 %
Artiste - Arts médiatiques - YT;2 500 $;0,05 %
Artiste - Musique total;3 233 407 $;13,65 %
Artiste - Musique - AB;130 900 $;4,05 %
Artiste - Musique - BC;400 900 $;12,40 %
Artiste - Musique - International;246 220 $;7,61 %
Artiste - Musique - MB;134 650 $;4,16 %
Artiste - Musique - NB;10 400 $;0,32 %
Artiste - Musique - NL;20 385 $;0,63 %
Artiste - Musique - NS;17 742 $;0,55 %
Artiste - Musique - NT;2 400 $;0,07 %
Artiste - Musique - ON;1 232 983 $;38,13 %
Artiste - Musique - PE;34 000 $;1,05 %
Artiste - Musique - QC;982 727 $;30,39 %
Artiste - Musique - SK;8 100 $;0,25 %
Artiste - Musique - YT;12 000 $;0,37 %
Artiste - Service des prix total;890 500 $;3,76 %
Artiste - Service des prix - AB;37 000 $;4,15 %
Artiste - Service des prix - BC;100 000 $;11,23 %
Artiste - Service des prix - International;39 000 $;4,38 %
Artiste - Service des prix - MB;25 000 $;2,81 %
Artiste - Service des prix - NB;1 000 $;0,11 %
Artiste - Service des prix - NL;500 $;0,06 %
Artiste - Service des prix - NS;3 000 $;0,34 %
Artiste - Service des prix - ON;321 000 $;36,05 %
Artiste - Service des prix - QC;336 000 $;37,73 %
Artiste - Service des prix - SK;27 000 $;3,03 %
Artiste - Service des prix - YT;1 000 $;0,11 %
Artiste - Théâtre total;816 550 $;3,45 %
Artiste - Théâtre - AB;47 975 $;5,88 %
Artiste - Théâtre - BC;161 100 $;19,73 %
Artiste - Théâtre - International;1 750 $;0,21 %
Artiste - Théâtre - MB;24 500 $;3,00 %
Artiste - Théâtre - NB;30 000 $;3,67 %
Artiste - Théâtre - NS;31 500 $;3,86 %
Artiste - Théâtre - ON;288 600 $;35,34 %
Artiste - Théâtre - QC;214 125 $;26,22 %
Artiste - Théâtre - SK;17 000 $;2,08 %
Artiste - Arts visuels total;6 023 400 $;25,42 %
Artiste - Arts visuels - AB;309 450 $;5,14 %
Artiste - Arts visuels - BC;1 194 300 $;19,83 %
Artiste - Arts visuels - International;248 250 $;4,12 %
Artiste - Arts visuels - MB;227 500 $;3,78 %
Artiste - Arts visuels - NB;101 100 $;1,68 %
Artiste - Arts visuels - NL;41 500 $;0,69 %
Artiste - Arts visuels - NS;105 800 $;1,76 %
Artiste - Arts visuels - ON;2 157 150 $;35,81 %
Artiste - Arts visuels - QC;1 432 350 $;23,78 %
Artiste - Arts visuels - SK;206 000 $;3,42 %
Artiste - Lettres et édition total;4 410 231 $;18,61 %
Artiste - Lettres et édition - AB;215 500 $;4,89 %
Artiste - Lettres et édition - BC;987 550 $;22,39 %
Artiste - Lettres et édition - International;180 500 $;4,09 %
Artiste - Lettres et édition - MB;57 000 $;1,29 %
Artiste - Lettres et édition - NB;79 000 $;1,79 %
Artiste - Lettres et édition - NL;37 500 $;0,85 %
Artiste - Lettres et édition - NS;146 000 $;3,31 %
Artiste - Lettres et édition - NT;7 000 $;0,16 %
Artiste - Lettres et édition - ON;1 457 781 $;33,05 %
Artiste - Lettres et édition - PE;2 500 $;0,06 %
Artiste - Lettres et édition - QC;1 112 900 $;25,23 %
Artiste - Lettres et édition - SK;95 500 $;2,17 %
Artiste - Lettres et édition - YT;31 500 $;0,71 %
Organisme total;122 034 078 $;83,74 %
Organisme - Bureau des arts autochtones total;1 820 340 $;1,49 %
Organisme - Bureau des arts autochtones - AB;90 000 $;4,94 %
Organisme - Bureau des arts autochtones - BC;353 000 $;19,39 %
Organisme - Bureau des arts autochtones - MB;42 000 $;2,31 %
Organisme - Bureau des arts autochtones - NL;22 700 $;1,25 %
Organisme - Bureau des arts autochtones - NS;91 000 $;5,00 %
Organisme - Bureau des arts autochtones - NT;30 000 $;1,65 %
Organisme - Bureau des arts autochtones - NU;298 000 $;16,37 %
Organisme - Bureau des arts autochtones - ON;610 450 $;33,53 %
Organisme - Bureau des arts autochtones - QC;181 950 $;10,00 %
Organisme - Bureau des arts autochtones - SK;81 240 $;4,46 %
Organisme - Bureau des arts autochtones - YT;20 000 $;1,10 %
Organisme - Programmes de subventions aux arts total;85 000 $;0,07 %
Organisme - Programmes de subventions aux arts - ON;85 000 $;100,00 %
Organisme - Développement des publics et des marchés total;2 914 700 $;2,39 %
Organisme - Développement des publics et des marchés - AB;27 160 $;0,93 %
Organisme - Développement des publics et des marchés - BC;457 168 $;15,68 %
Organisme - Développement des publics et des marchés - International;109 370 $;3,75 %
Organisme - Développement des publics et des marchés - MB;24 310 $;0,83 %
Organisme - Développement des publics et des marchés - NB;11 825 $;0,41 %
Organisme - Développement des publics et des marchés - NL;6 811 $;0,23 %
Organisme - Développement des publics et des marchés - NS;47 080 $;1,62 %
Organisme - Développement des publics et des marchés - ON;924 996 $;31,74 %
Organisme - Développement des publics et des marchés - PE;36 845 $;1,26 %
Organisme - Développement des publics et des marchés - QC;1 217 650 $;41,78 %
Organisme - Développement des publics et des marchés - SK;7 240 $;0,25 %
Organisme - Développement des publics et des marchés - YT;44 245 $;1,52 %
Organisme - Danse total;17 321 317 $;14,19 %
Organisme - Danse - AB;739 185 $;4,27 %
Organisme - Danse - BC;2 496 840 $;14,41 %
Organisme - Danse - MB;1 226 000 $;7,08 %
Organisme - Danse - NB;73 000 $;0,42 %
Organisme - Danse - NL;61 000 $;0,35 %
Organisme - Danse - NS;212 300 $;1,23 %
Organisme - Danse - ON;5 857 085 $;33,81 %
Organisme - Danse - PE;40 000 $;0,23 %
Organisme - Danse - QC;6 615 907 $;38,20 %
Organisme - Bureau de l'équité total;723 557 $;0,59 %
Organisme - Bureau de l'équité - AB;42 700 $;5,90 %
Organisme - Bureau de l'équité - BC;181 780 $;25,12 %
Organisme - Bureau de l'équité - MB;44 600 $;6,16 %
Organisme - Bureau de l'équité - ON;257 080 $;35,53 %
Organisme - Bureau de l'équité - QC;197 397 $;27,28 %
Organisme - Bureau Inter-arts total;2 283 300 $;1,87 %
Organisme - Bureau Inter-arts - AB;70 500 $;3,09 %
Organisme - Bureau Inter-arts - BC;409 500 $;17,93 %
Organisme - Bureau Inter-arts - NB;20 000 $;0,88 %
Organisme - Bureau Inter-arts - NL;45 000 $;1,97 %
Organisme - Bureau Inter-arts - NS;35 000 $;1,53 %
Organisme - Bureau Inter-arts - NT;25 000 $;1,09 %
Organisme - Bureau Inter-arts - NU;70 000 $;3,07 %
Organisme - Bureau Inter-arts - ON;308 400 $;13,51 %
Organisme - Bureau Inter-arts - PE;15 000 $;0,66 %
Organisme - Bureau Inter-arts - QC;1 181 900 $;51,76 %
Organisme - Bureau Inter-arts - SK;103 000 $;4,51 %
Organisme - Arts médiatiques total;9 302 633 $;7,62 %
Organisme - Arts médiatiques - AB;485 679 $;5,22 %
Organisme - Arts médiatiques - BC;1 217 448 $;13,09 %
Organisme - Arts médiatiques - International;60 000 $;0,64 %
Organisme - Arts médiatiques - MB;493 767 $;5,31 %
Organisme - Arts médiatiques - NB;150 099 $;1,61 %
Organisme - Arts médiatiques - NL;148 562 $;1,60 %
Organisme - Arts médiatiques - NS;346 964 $;3,73 %
Organisme - Arts médiatiques - NT;38 159 $;0,41 %
Organisme - Arts médiatiques - NU;65 000 $;0,70 %
Organisme - Arts médiatiques - ON;2 883 793 $;31,00 %
Organisme - Arts médiatiques - PE;79 669 $;0,86 %
Organisme - Arts médiatiques - QC;2 983 117 $;32,07 %
Organisme - Arts médiatiques - SK;251 476 $;2,70 %
Organisme - Arts médiatiques - YT;98 900 $;1,06 %
Organisme - Musique total;25 250 964 $;20,69 %
Organisme - Musique - AB;2 495 643 $;9,88 %
Organisme - Musique - BC;4 241 630 $;16,80 %
Organisme - Musique - International;102 400 $;0,41 %
Organisme - Musique - MB;1 449 420 $;5,74 %
Organisme - Musique - NB;74 644 $;0,30 %
Organisme - Musique - NL;124 757 $;0,49 %
Organisme - Musique - NS;846 196 $;3,35 %
Organisme - Musique - NU;7 500 $;0,03 %
Organisme - Musique - ON;8 830 585 $;34,97 %
Organisme - Musique - PE;56 115 $;0,22 %
Organisme - Musique - QC;6 685 784 $;26,48 %
Organisme - Musique - SK;318 290 $;1,26 %
Organisme - Musique - YT;18 000 $;0,07 %
Organisme - Service des prix total;135 000 $;0,11 %
Organisme - Service des prix - AB;5 000 $;3,70 %
Organisme - Service des prix - BC;50 000 $;37,04 %
Organisme - Service des prix - International;3 000 $;2,22 %
Organisme - Service des prix - MB;18 000 $;13,33 %
Organisme - Service des prix - ON;28 000 $;20,74 %
Organisme - Service des prix - QC;31 000 $;22,96 %
Organisme - Théâtre total;26 465 759 $;21,69 %
Organisme - Théâtre - AB;2 033 200 $;7,68 %
Organisme - Théâtre - BC;2 916 065 $;11,02 %
Organisme - Théâtre - International;62 030 $;0,23 %
Organisme - Théâtre - MB;983 467 $;3,72 %
Organisme - Théâtre - NB;532 310 $;2,01 %
Organisme - Théâtre - NL;516 300 $;1,95 %
Organisme - Théâtre - NS;1 072 600 $;4,05 %
Organisme - Théâtre - ON;8 634 380 $;32,62 %
Organisme - Théâtre - PE;19 000 $;0,07 %
Organisme - Théâtre - QC;8 834 346 $;33,38 %
Organisme - Théâtre - SK;769 906 $;2,91 %
Organisme - Théâtre - YT;92 155 $;0,35 %
Organisme - Arts visuels total;15 514 050 $;12,71 %
Organisme - Arts visuels - AB;1 057 350 $;6,82 %
Organisme - Arts visuels - BC;2 499 550 $;16,11 %
Organisme - Arts visuels - International;90 000 $;0,58 %
Organisme - Arts visuels - MB;611 150 $;3,94 %
Organisme - Arts visuels - NB;465 150 $;3,00 %
Organisme - Arts visuels - NL;160 900 $;1,04 %
Organisme - Arts visuels - NS;539 700 $;3,48 %
Organisme - Arts visuels - ON;4 753 150 $;30,64 %
Organisme - Arts visuels - PE;208 000 $;1,34 %
Organisme - Arts visuels - QC;4 081 200 $;26,31 %
Organisme - Arts visuels - SK;964 900 $;6,22 %
Organisme - Arts visuels - YT;83 000 $;0,53 %
Organisme - Lettres et édition total;20 217 458 $;16,57 %
Organisme - Lettres et édition - AB;414 565 $;2,05 %
Organisme - Lettres et édition - BC;2 363 647 $;11,69 %
Organisme - Lettres et édition - International;352 100 $;1,74 %
Organisme - Lettres et édition - MB;735 630 $;3,64 %
Organisme - Lettres et édition - NB;420 100 $;2,08 %
Organisme - Lettres et édition - NL;284 475 $;1,41 %
Organisme - Lettres et édition - NS;544 400 $;2,69 %
Organisme - Lettres et édition - NT;13 700 $;0,07 %
Organisme - Lettres et édition - NU;55 400 $;0,27 %
Organisme - Lettres et édition - ON;6 372 567 $;31,52 %
Organisme - Lettres et édition - PE;45 900 $;0,23 %
Organisme - Lettres et édition - QC;8 220 174 $;40,66 %
Organisme - Lettres et édition - SK;386 700 $;1,91 %
Organisme - Lettres et édition - YT;8 100 $;0,04 %