{
    "nodes": [
        {
            "name": "Total Investments",
            "id": "Total",
            "column": "1"
        },
        {
            "name": "Indiv.",
            "id": "Individual",
            "column": "2"
        },
        {
            "name": "Orgs.",
            "id": "Organization",
            "column": "2"
        },
        {
            "name": "ON",
            "id": "province_ON",
            "column": "3"
        },
        {
            "name": "QC",
            "id": "province_QC",
            "column": "3"
        },
        {
            "name": "BC",
            "id": "province_BC",
            "column": "3"
        },
        {
            "name": "AB",
            "id": "province_AB",
            "column": "3"
        },
        {
            "name": "MB",
            "id": "province_MB",
            "column": "3"
        },
        {
            "name": "NS",
            "id": "province_NS",
            "column": "3"
        },
        {
            "name": "SK",
            "id": "province_SK",
            "column": "3"
        },
        {
            "name": "NB",
            "id": "province_NB",
            "column": "3"
        },
        {
            "name": "International",
            "id": "province_International",
            "column": "3"
        },
        {
            "name": "NL",
            "id": "province_NL",
            "column": "3"
        },
        {
            "name": "NU",
            "id": "province_NU",
            "column": "3"
        },
        {
            "name": "NT",
            "id": "province_NT",
            "column": "3"
        },
        {
            "name": "YT",
            "id": "province_YT",
            "column": "3"
        },
        {
            "name": "PE",
            "id": "province_PE",
            "column": "3"
        },
        {
            "name": "Granting",
            "id": "section_Granting",
            "column": "4"
        },
        {
            "name": "Music",
            "id": "section_Music",
            "column": "4"
        },
        {
            "name": "Theatre",
            "id": "section_Theatre",
            "column": "4"
        },
        {
            "name": "Writing",
            "id": "section_Writing",
            "column": "4"
        },
        {
            "name": "Visual",
            "id": "section_Visual",
            "column": "4"
        },
        {
            "name": "Dance",
            "id": "section_Dance",
            "column": "4"
        },
        {
            "name": "Media",
            "id": "section_Media",
            "column": "4"
        },
        {
            "name": "Inter-Arts",
            "id": "section_Inter-Arts",
            "column": "4"
        },
        {
            "name": "Aborigin.",
            "id": "section_Aborigin.",
            "column": "4"
        },
        {
            "name": "Audience",
            "id": "section_Audience",
            "column": "4"
        },
        {
            "name": "Equity",
            "id": "section_Equity",
            "column": "4"
        },
        {
            "name": "Prizes",
            "id": "section_Prizes",
            "column": "4"
        }
    ],
    "links": [
        {
            "source": 0,
            "target": 1,
            "value": 31389033
        },
        {
            "source": 0,
            "target": 2,
            "value": 153366713
        },
        {
            "source": 1,
            "target": 3,
            "value": 10861580
        },
        {
            "source": 1,
            "target": 4,
            "value": 9655935
        },
        {
            "source": 1,
            "target": 5,
            "value": 5241251
        },
        {
            "source": 1,
            "target": 6,
            "value": 1170430
        },
        {
            "source": 1,
            "target": 7,
            "value": 709920
        },
        {
            "source": 1,
            "target": 8,
            "value": 590904
        },
        {
            "source": 1,
            "target": 9,
            "value": 394015
        },
        {
            "source": 1,
            "target": 10,
            "value": 186900
        },
        {
            "source": 1,
            "target": 11,
            "value": 1730137
        },
        {
            "source": 1,
            "target": 12,
            "value": 260311
        },
        {
            "source": 1,
            "target": 13,
            "value": 276250
        },
        {
            "source": 1,
            "target": 14,
            "value": 79665
        },
        {
            "source": 1,
            "target": 15,
            "value": 77200
        },
        {
            "source": 1,
            "target": 16,
            "value": 154535
        },
        {
            "source": 2,
            "target": 3,
            "value": 48258375
        },
        {
            "source": 2,
            "target": 4,
            "value": 48246360
        },
        {
            "source": 2,
            "target": 5,
            "value": 21994018
        },
        {
            "source": 2,
            "target": 6,
            "value": 9350109
        },
        {
            "source": 2,
            "target": 7,
            "value": 7249899
        },
        {
            "source": 2,
            "target": 8,
            "value": 5024515
        },
        {
            "source": 2,
            "target": 9,
            "value": 3973236
        },
        {
            "source": 2,
            "target": 10,
            "value": 2780980
        },
        {
            "source": 2,
            "target": 11,
            "value": 769973
        },
        {
            "source": 2,
            "target": 12,
            "value": 2107120
        },
        {
            "source": 2,
            "target": 13,
            "value": 1257055
        },
        {
            "source": 2,
            "target": 14,
            "value": 1146464
        },
        {
            "source": 2,
            "target": 15,
            "value": 864050
        },
        {
            "source": 2,
            "target": 16,
            "value": 344559
        },
        {
            "source": 3,
            "target": 17,
            "value": 2661000
        },
        {
            "source": 3,
            "target": 18,
            "value": 1835088
        },
        {
            "source": 3,
            "target": 19,
            "value": 462250
        },
        {
            "source": 3,
            "target": 20,
            "value": 1265250
        },
        {
            "source": 3,
            "target": 21,
            "value": 1798750
        },
        {
            "source": 3,
            "target": 22,
            "value": 406348
        },
        {
            "source": 3,
            "target": 23,
            "value": 1335250
        },
        {
            "source": 3,
            "target": 24,
            "value": 90600
        },
        {
            "source": 3,
            "target": 25,
            "value": 245700
        },
        {
            "source": 3,
            "target": 26,
            "value": 150891
        },
        {
            "source": 3,
            "target": 27,
            "value": 271953
        },
        {
            "source": 3,
            "target": 28,
            "value": 338500
        },
        {
            "source": 4,
            "target": 17,
            "value": 1801000
        },
        {
            "source": 4,
            "target": 18,
            "value": 1144149
        },
        {
            "source": 4,
            "target": 19,
            "value": 237600
        },
        {
            "source": 4,
            "target": 20,
            "value": 1175450
        },
        {
            "source": 4,
            "target": 21,
            "value": 1580300
        },
        {
            "source": 4,
            "target": 22,
            "value": 424641
        },
        {
            "source": 4,
            "target": 23,
            "value": 2194430
        },
        {
            "source": 4,
            "target": 24,
            "value": 274250
        },
        {
            "source": 4,
            "target": 25,
            "value": 211750
        },
        {
            "source": 4,
            "target": 26,
            "value": 145525
        },
        {
            "source": 4,
            "target": 27,
            "value": 130340
        },
        {
            "source": 4,
            "target": 28,
            "value": 336500
        },
        {
            "source": 5,
            "target": 17,
            "value": 1203000
        },
        {
            "source": 5,
            "target": 18,
            "value": 465170
        },
        {
            "source": 5,
            "target": 19,
            "value": 97200
        },
        {
            "source": 5,
            "target": 20,
            "value": 889250
        },
        {
            "source": 5,
            "target": 21,
            "value": 1013900
        },
        {
            "source": 5,
            "target": 22,
            "value": 246201
        },
        {
            "source": 5,
            "target": 23,
            "value": 871300
        },
        {
            "source": 5,
            "target": 24,
            "value": 86700
        },
        {
            "source": 5,
            "target": 25,
            "value": 71500
        },
        {
            "source": 5,
            "target": 26,
            "value": 48315
        },
        {
            "source": 5,
            "target": 27,
            "value": 154215
        },
        {
            "source": 5,
            "target": 28,
            "value": 94500
        },
        {
            "source": 6,
            "target": 17,
            "value": 145000
        },
        {
            "source": 6,
            "target": 18,
            "value": 97200
        },
        {
            "source": 6,
            "target": 19,
            "value": 37250
        },
        {
            "source": 6,
            "target": 20,
            "value": 195750
        },
        {
            "source": 6,
            "target": 21,
            "value": 272350
        },
        {
            "source": 6,
            "target": 22,
            "value": 133100
        },
        {
            "source": 6,
            "target": 23,
            "value": 111000
        },
        {
            "source": 6,
            "target": 24,
            "value": 4000
        },
        {
            "source": 6,
            "target": 25,
            "value": 47000
        },
        {
            "source": 6,
            "target": 26,
            "value": 8780
        },
        {
            "source": 6,
            "target": 27,
            "value": 59000
        },
        {
            "source": 6,
            "target": 28,
            "value": 60000
        },
        {
            "source": 7,
            "target": 18,
            "value": 101175
        },
        {
            "source": 7,
            "target": 19,
            "value": 33300
        },
        {
            "source": 7,
            "target": 20,
            "value": 102500
        },
        {
            "source": 7,
            "target": 21,
            "value": 229500
        },
        {
            "source": 7,
            "target": 22,
            "value": 33300
        },
        {
            "source": 7,
            "target": 23,
            "value": 139900
        },
        {
            "source": 7,
            "target": 24,
            "value": 20750
        },
        {
            "source": 7,
            "target": 26,
            "value": 19720
        },
        {
            "source": 7,
            "target": 27,
            "value": 27775
        },
        {
            "source": 7,
            "target": 28,
            "value": 2000
        },
        {
            "source": 8,
            "target": 17,
            "value": 63000
        },
        {
            "source": 8,
            "target": 18,
            "value": 59109
        },
        {
            "source": 8,
            "target": 19,
            "value": 58400
        },
        {
            "source": 8,
            "target": 20,
            "value": 148300
        },
        {
            "source": 8,
            "target": 21,
            "value": 139800
        },
        {
            "source": 8,
            "target": 22,
            "value": 8525
        },
        {
            "source": 8,
            "target": 23,
            "value": 61450
        },
        {
            "source": 8,
            "target": 24,
            "value": 2500
        },
        {
            "source": 8,
            "target": 26,
            "value": 5020
        },
        {
            "source": 8,
            "target": 27,
            "value": 18800
        },
        {
            "source": 8,
            "target": 28,
            "value": 26000
        },
        {
            "source": 9,
            "target": 18,
            "value": 23350
        },
        {
            "source": 9,
            "target": 19,
            "value": 800
        },
        {
            "source": 9,
            "target": 20,
            "value": 68000
        },
        {
            "source": 9,
            "target": 21,
            "value": 101200
        },
        {
            "source": 9,
            "target": 23,
            "value": 109850
        },
        {
            "source": 9,
            "target": 24,
            "value": 23800
        },
        {
            "source": 9,
            "target": 25,
            "value": 5000
        },
        {
            "source": 9,
            "target": 26,
            "value": 14840
        },
        {
            "source": 9,
            "target": 27,
            "value": 20175
        },
        {
            "source": 9,
            "target": 28,
            "value": 27000
        },
        {
            "source": 10,
            "target": 18,
            "value": 34700
        },
        {
            "source": 10,
            "target": 19,
            "value": 15250
        },
        {
            "source": 10,
            "target": 20,
            "value": 2000
        },
        {
            "source": 10,
            "target": 21,
            "value": 63500
        },
        {
            "source": 10,
            "target": 23,
            "value": 57200
        },
        {
            "source": 10,
            "target": 25,
            "value": 4500
        },
        {
            "source": 10,
            "target": 26,
            "value": 8750
        },
        {
            "source": 10,
            "target": 28,
            "value": 1000
        },
        {
            "source": 11,
            "target": 17,
            "value": 600000
        },
        {
            "source": 11,
            "target": 18,
            "value": 287740
        },
        {
            "source": 11,
            "target": 19,
            "value": 3450
        },
        {
            "source": 11,
            "target": 20,
            "value": 118750
        },
        {
            "source": 11,
            "target": 21,
            "value": 459800
        },
        {
            "source": 11,
            "target": 22,
            "value": 26677
        },
        {
            "source": 11,
            "target": 23,
            "value": 185000
        },
        {
            "source": 11,
            "target": 24,
            "value": 29500
        },
        {
            "source": 11,
            "target": 26,
            "value": 9220
        },
        {
            "source": 11,
            "target": 27,
            "value": 7000
        },
        {
            "source": 11,
            "target": 28,
            "value": 3000
        },
        {
            "source": 12,
            "target": 17,
            "value": 50000
        },
        {
            "source": 12,
            "target": 18,
            "value": 19732
        },
        {
            "source": 12,
            "target": 19,
            "value": 30000
        },
        {
            "source": 12,
            "target": 20,
            "value": 59900
        },
        {
            "source": 12,
            "target": 21,
            "value": 24300
        },
        {
            "source": 12,
            "target": 22,
            "value": 35579
        },
        {
            "source": 12,
            "target": 23,
            "value": 24100
        },
        {
            "source": 12,
            "target": 27,
            "value": 16700
        },
        {
            "source": 13,
            "target": 17,
            "value": 140000
        },
        {
            "source": 13,
            "target": 18,
            "value": 3850
        },
        {
            "source": 13,
            "target": 21,
            "value": 5000
        },
        {
            "source": 13,
            "target": 23,
            "value": 119400
        },
        {
            "source": 13,
            "target": 26,
            "value": 8000
        },
        {
            "source": 14,
            "target": 18,
            "value": 6000
        },
        {
            "source": 14,
            "target": 20,
            "value": 5000
        },
        {
            "source": 14,
            "target": 21,
            "value": 20000
        },
        {
            "source": 14,
            "target": 23,
            "value": 23000
        },
        {
            "source": 14,
            "target": 25,
            "value": 25000
        },
        {
            "source": 14,
            "target": 26,
            "value": 665
        },
        {
            "source": 15,
            "target": 18,
            "value": 14500
        },
        {
            "source": 15,
            "target": 19,
            "value": 4000
        },
        {
            "source": 15,
            "target": 21,
            "value": 5500
        },
        {
            "source": 15,
            "target": 22,
            "value": 15000
        },
        {
            "source": 15,
            "target": 23,
            "value": 26500
        },
        {
            "source": 15,
            "target": 24,
            "value": 2500
        },
        {
            "source": 15,
            "target": 25,
            "value": 4500
        },
        {
            "source": 15,
            "target": 26,
            "value": 4700
        },
        {
            "source": 16,
            "target": 18,
            "value": 118000
        },
        {
            "source": 16,
            "target": 22,
            "value": 11000
        },
        {
            "source": 16,
            "target": 26,
            "value": 24635
        },
        {
            "source": 16,
            "target": 27,
            "value": 900
        },
        {
            "source": 3,
            "target": 17,
            "value": 7827000
        },
        {
            "source": 3,
            "target": 18,
            "value": 8725288
        },
        {
            "source": 3,
            "target": 19,
            "value": 9057664
        },
        {
            "source": 3,
            "target": 20,
            "value": 6060135
        },
        {
            "source": 3,
            "target": 21,
            "value": 5023400
        },
        {
            "source": 3,
            "target": 22,
            "value": 6313412
        },
        {
            "source": 3,
            "target": 23,
            "value": 3054088
        },
        {
            "source": 3,
            "target": 24,
            "value": 445400
        },
        {
            "source": 3,
            "target": 25,
            "value": 633700
        },
        {
            "source": 3,
            "target": 26,
            "value": 714754
        },
        {
            "source": 3,
            "target": 27,
            "value": 322534
        },
        {
            "source": 3,
            "target": 28,
            "value": 81000
        },
        {
            "source": 4,
            "target": 17,
            "value": 7459000
        },
        {
            "source": 4,
            "target": 18,
            "value": 6584874
        },
        {
            "source": 4,
            "target": 19,
            "value": 8984761
        },
        {
            "source": 4,
            "target": 20,
            "value": 8120415
        },
        {
            "source": 4,
            "target": 21,
            "value": 4321400
        },
        {
            "source": 4,
            "target": 22,
            "value": 7082781
        },
        {
            "source": 4,
            "target": 23,
            "value": 2722091
        },
        {
            "source": 4,
            "target": 24,
            "value": 1321500
        },
        {
            "source": 4,
            "target": 25,
            "value": 331590
        },
        {
            "source": 4,
            "target": 26,
            "value": 1142348
        },
        {
            "source": 4,
            "target": 27,
            "value": 144600
        },
        {
            "source": 4,
            "target": 28,
            "value": 31000
        },
        {
            "source": 5,
            "target": 17,
            "value": 4145000
        },
        {
            "source": 5,
            "target": 18,
            "value": 4202648
        },
        {
            "source": 5,
            "target": 19,
            "value": 3075761
        },
        {
            "source": 5,
            "target": 20,
            "value": 2150780
        },
        {
            "source": 5,
            "target": 21,
            "value": 2465950
        },
        {
            "source": 5,
            "target": 22,
            "value": 2911967
        },
        {
            "source": 5,
            "target": 23,
            "value": 1296528
        },
        {
            "source": 5,
            "target": 24,
            "value": 439600
        },
        {
            "source": 5,
            "target": 25,
            "value": 834650
        },
        {
            "source": 5,
            "target": 26,
            "value": 340134
        },
        {
            "source": 5,
            "target": 27,
            "value": 131000
        },
        {
            "source": 6,
            "target": 17,
            "value": 1906000
        },
        {
            "source": 6,
            "target": 18,
            "value": 2517313
        },
        {
            "source": 6,
            "target": 19,
            "value": 1926345
        },
        {
            "source": 6,
            "target": 20,
            "value": 386285
        },
        {
            "source": 6,
            "target": 21,
            "value": 899450
        },
        {
            "source": 6,
            "target": 22,
            "value": 780685
        },
        {
            "source": 6,
            "target": 23,
            "value": 524839
        },
        {
            "source": 6,
            "target": 24,
            "value": 100500
        },
        {
            "source": 6,
            "target": 25,
            "value": 181100
        },
        {
            "source": 6,
            "target": 26,
            "value": 60825
        },
        {
            "source": 6,
            "target": 27,
            "value": 66767
        },
        {
            "source": 7,
            "target": 17,
            "value": 1250000
        },
        {
            "source": 7,
            "target": 18,
            "value": 1461020
        },
        {
            "source": 7,
            "target": 19,
            "value": 1012877
        },
        {
            "source": 7,
            "target": 20,
            "value": 703580
        },
        {
            "source": 7,
            "target": 21,
            "value": 633000
        },
        {
            "source": 7,
            "target": 22,
            "value": 1337000
        },
        {
            "source": 7,
            "target": 23,
            "value": 662722
        },
        {
            "source": 7,
            "target": 25,
            "value": 92000
        },
        {
            "source": 7,
            "target": 26,
            "value": 27700
        },
        {
            "source": 7,
            "target": 27,
            "value": 52000
        },
        {
            "source": 7,
            "target": 28,
            "value": 18000
        },
        {
            "source": 8,
            "target": 17,
            "value": 1313000
        },
        {
            "source": 8,
            "target": 18,
            "value": 857096
        },
        {
            "source": 8,
            "target": 19,
            "value": 1038000
        },
        {
            "source": 8,
            "target": 20,
            "value": 514000
        },
        {
            "source": 8,
            "target": 21,
            "value": 583900
        },
        {
            "source": 8,
            "target": 22,
            "value": 224200
        },
        {
            "source": 8,
            "target": 23,
            "value": 351664
        },
        {
            "source": 8,
            "target": 24,
            "value": 44500
        },
        {
            "source": 8,
            "target": 26,
            "value": 71155
        },
        {
            "source": 8,
            "target": 27,
            "value": 27000
        },
        {
            "source": 9,
            "target": 17,
            "value": 895000
        },
        {
            "source": 9,
            "target": 18,
            "value": 340860
        },
        {
            "source": 9,
            "target": 19,
            "value": 779810
        },
        {
            "source": 9,
            "target": 20,
            "value": 454590
        },
        {
            "source": 9,
            "target": 21,
            "value": 992400
        },
        {
            "source": 9,
            "target": 22,
            "value": 5000
        },
        {
            "source": 9,
            "target": 23,
            "value": 277041
        },
        {
            "source": 9,
            "target": 24,
            "value": 168000
        },
        {
            "source": 9,
            "target": 25,
            "value": 51000
        },
        {
            "source": 9,
            "target": 26,
            "value": 9535
        },
        {
            "source": 10,
            "target": 17,
            "value": 880000
        },
        {
            "source": 10,
            "target": 18,
            "value": 82054
        },
        {
            "source": 10,
            "target": 19,
            "value": 505520
        },
        {
            "source": 10,
            "target": 20,
            "value": 379512
        },
        {
            "source": 10,
            "target": 21,
            "value": 447300
        },
        {
            "source": 10,
            "target": 22,
            "value": 215750
        },
        {
            "source": 10,
            "target": 23,
            "value": 168349
        },
        {
            "source": 10,
            "target": 24,
            "value": 51700
        },
        {
            "source": 10,
            "target": 26,
            "value": 50795
        },
        {
            "source": 11,
            "target": 18,
            "value": 72900
        },
        {
            "source": 11,
            "target": 19,
            "value": 43453
        },
        {
            "source": 11,
            "target": 20,
            "value": 261300
        },
        {
            "source": 11,
            "target": 21,
            "value": 268000
        },
        {
            "source": 11,
            "target": 25,
            "value": 50000
        },
        {
            "source": 11,
            "target": 26,
            "value": 74320
        },
        {
            "source": 12,
            "target": 17,
            "value": 577000
        },
        {
            "source": 12,
            "target": 18,
            "value": 178557
        },
        {
            "source": 12,
            "target": 19,
            "value": 564841
        },
        {
            "source": 12,
            "target": 20,
            "value": 230000
        },
        {
            "source": 12,
            "target": 21,
            "value": 218800
        },
        {
            "source": 12,
            "target": 22,
            "value": 110000
        },
        {
            "source": 12,
            "target": 23,
            "value": 168237
        },
        {
            "source": 12,
            "target": 25,
            "value": 55000
        },
        {
            "source": 12,
            "target": 26,
            "value": 4685
        },
        {
            "source": 13,
            "target": 17,
            "value": 675000
        },
        {
            "source": 13,
            "target": 18,
            "value": 6000
        },
        {
            "source": 13,
            "target": 20,
            "value": 67600
        },
        {
            "source": 13,
            "target": 23,
            "value": 84100
        },
        {
            "source": 13,
            "target": 24,
            "value": 70000
        },
        {
            "source": 13,
            "target": 25,
            "value": 327000
        },
        {
            "source": 13,
            "target": 26,
            "value": 27355
        },
        {
            "source": 14,
            "target": 17,
            "value": 1015000
        },
        {
            "source": 14,
            "target": 18,
            "value": 3000
        },
        {
            "source": 14,
            "target": 19,
            "value": 24000
        },
        {
            "source": 14,
            "target": 20,
            "value": 11300
        },
        {
            "source": 14,
            "target": 23,
            "value": 56164
        },
        {
            "source": 14,
            "target": 24,
            "value": 30000
        },
        {
            "source": 14,
            "target": 25,
            "value": 4000
        },
        {
            "source": 14,
            "target": 26,
            "value": 3000
        },
        {
            "source": 15,
            "target": 17,
            "value": 455000
        },
        {
            "source": 15,
            "target": 19,
            "value": 121150
        },
        {
            "source": 15,
            "target": 20,
            "value": 8900
        },
        {
            "source": 15,
            "target": 21,
            "value": 88100
        },
        {
            "source": 15,
            "target": 23,
            "value": 117500
        },
        {
            "source": 15,
            "target": 24,
            "value": 18000
        },
        {
            "source": 15,
            "target": 25,
            "value": 20000
        },
        {
            "source": 15,
            "target": 26,
            "value": 35400
        },
        {
            "source": 16,
            "target": 18,
            "value": 15215
        },
        {
            "source": 16,
            "target": 19,
            "value": 16000
        },
        {
            "source": 16,
            "target": 20,
            "value": 57750
        },
        {
            "source": 16,
            "target": 21,
            "value": 169700
        },
        {
            "source": 16,
            "target": 23,
            "value": 63639
        },
        {
            "source": 16,
            "target": 25,
            "value": 20000
        },
        {
            "source": 16,
            "target": 26,
            "value": 2255
        }
    ]
}